%!PS-Adobe-3.0 EPSF-3.0
%%Creator: cairo 1.14.2 (http://cairographics.org)
%%CreationDate: Thu Jul 14 11:52:08 2016
%%Pages: 1
%%DocumentData: Clean7Bit
%%LanguageLevel: 2
%%BoundingBox: 0 -1 426 426
%%EndComments
%%BeginProlog
save
50 dict begin
/q { gsave } bind def
/Q { grestore } bind def
/cm { 6 array astore concat } bind def
/w { setlinewidth } bind def
/J { setlinecap } bind def
/j { setlinejoin } bind def
/M { setmiterlimit } bind def
/d { setdash } bind def
/m { moveto } bind def
/l { lineto } bind def
/c { curveto } bind def
/h { closepath } bind def
/re { exch dup neg 3 1 roll 5 3 roll moveto 0 rlineto
      0 exch rlineto 0 rlineto closepath } bind def
/S { stroke } bind def
/f { fill } bind def
/f* { eofill } bind def
/n { newpath } bind def
/W { clip } bind def
/W* { eoclip } bind def
/BT { } bind def
/ET { } bind def
/pdfmark where { pop globaldict /?pdfmark /exec load put }
    { globaldict begin /?pdfmark /pop load def /pdfmark
    /cleartomark load def end } ifelse
/BDC { mark 3 1 roll /BDC pdfmark } bind def
/EMC { mark /EMC pdfmark } bind def
/cairo_store_point { /cairo_point_y exch def /cairo_point_x exch def } def
/Tj { show currentpoint cairo_store_point } bind def
/TJ {
  {
    dup
    type /stringtype eq
    { show } { -0.001 mul 0 cairo_font_matrix dtransform rmoveto } ifelse
  } forall
  currentpoint cairo_store_point
} bind def
/cairo_selectfont { cairo_font_matrix aload pop pop pop 0 0 6 array astore
    cairo_font exch selectfont cairo_point_x cairo_point_y moveto } bind def
/Tf { pop /cairo_font exch def /cairo_font_matrix where
      { pop cairo_selectfont } if } bind def
/Td { matrix translate cairo_font_matrix matrix concatmatrix dup
      /cairo_font_matrix exch def dup 4 get exch 5 get cairo_store_point
      /cairo_font where { pop cairo_selectfont } if } bind def
/Tm { 2 copy 8 2 roll 6 array astore /cairo_font_matrix exch def
      cairo_store_point /cairo_font where { pop cairo_selectfont } if } bind def
/g { setgray } bind def
/rg { setrgbcolor } bind def
/d1 { setcachedevice } bind def
%%EndProlog
%%BeginSetup
%%EndSetup
%%Page: 1 1
%%BeginPageSetup
%%PageBoundingBox: 0 -1 426 426
%%EndPageSetup
q 0 -1 426 427 rectclip q
0 g
0.8 w
0 J
0 j
[] 0.0 d
4 M q 1 0 0 -1 0 425.196838 cm
-43.637 141.559 m 457.273 141.559 l 459.09 283.379 l -68.184 283.379 l 
-26.363 487.016 l 141.816 508.832 l 141.816 -66.621 l 283.637 -65.711 l 
283.637 554.289 l -103.637 545.195 l -130 408.832 l -160 176.105 l h
-43.637 141.559 m S Q
1 0 0 rg
64.547 390.455 m 64.547 382.169 57.625 375.455 49.09 375.455 c 40.555 375.455
 33.637 382.169 33.637 390.455 c 33.637 398.74 40.555 405.455 49.09 405.455
 c 57.625 405.455 64.547 398.74 64.547 390.455 c h
64.547 390.455 m f*
0 g
q 1 0 0 -1 0 425.196838 cm
64.547 34.742 m 64.547 43.027 57.625 49.742 49.09 49.742 c 40.555 49.742
 33.637 43.027 33.637 34.742 c 33.637 26.457 40.555 19.742 49.09 19.742 
c 57.625 19.742 64.547 26.457 64.547 34.742 c h
64.547 34.742 m S Q
1 0 0 rg
53.637 338.181 m 53.637 329.896 46.719 323.181 38.184 323.181 c 29.648 
323.181 22.727 329.896 22.727 338.181 c 22.727 346.466 29.648 353.181 38.184
 353.181 c 46.719 353.181 53.637 346.466 53.637 338.181 c h
53.637 338.181 m f*
0 g
q 1 0 0 -1 0 425.196838 cm
53.637 87.016 m 53.637 95.301 46.719 102.016 38.184 102.016 c 29.648 102.016
 22.727 95.301 22.727 87.016 c 22.727 78.73 29.648 72.016 38.184 72.016 
c 46.719 72.016 53.637 78.73 53.637 87.016 c h
53.637 87.016 m S Q
1 0 0 rg
110 336.365 m 110 328.08 103.082 321.365 94.547 321.365 c 86.012 321.365
 79.09 328.08 79.09 336.365 c 79.09 344.646 86.012 351.365 94.547 351.365
 c 103.082 351.365 110 344.646 110 336.365 c h
110 336.365 m f*
0 g
q 1 0 0 -1 0 425.196838 cm
110 88.832 m 110 97.117 103.082 103.832 94.547 103.832 c 86.012 103.832
 79.09 97.117 79.09 88.832 c 79.09 80.551 86.012 73.832 94.547 73.832 c 
103.082 73.832 110 80.551 110 88.832 c h
110 88.832 m S Q
1 0 0 rg
229.09 207.271 m 229.09 198.99 222.172 192.271 213.637 192.271 c 205.102
 192.271 198.184 198.99 198.184 207.271 c 198.184 215.556 205.102 222.271
 213.637 222.271 c 222.172 222.271 229.09 215.556 229.09 207.271 c h
229.09 207.271 m f*
0 g
q 1 0 0 -1 0 425.196838 cm
229.09 217.926 m 229.09 226.207 222.172 232.926 213.637 232.926 c 205.102
 232.926 198.184 226.207 198.184 217.926 c 198.184 209.641 205.102 202.926
 213.637 202.926 c 222.172 202.926 229.09 209.641 229.09 217.926 c h
229.09 217.926 m S Q
1 0 0 rg
374.547 71.818 m 374.547 63.533 367.625 56.818 359.09 56.818 c 350.555 
56.818 343.637 63.533 343.637 71.818 c 343.637 80.103 350.555 86.818 359.09
 86.818 c 367.625 86.818 374.547 80.103 374.547 71.818 c h
374.547 71.818 m f*
0 g
q 1 0 0 -1 0 425.196838 cm
374.547 353.379 m 374.547 361.664 367.625 368.379 359.09 368.379 c 350.555
 368.379 343.637 361.664 343.637 353.379 c 343.637 345.094 350.555 338.379
 359.09 338.379 c 367.625 338.379 374.547 345.094 374.547 353.379 c h
374.547 353.379 m S Q
0 0 0.501961 rg
268.184 243.638 m 268.184 235.353 261.262 228.638 252.727 228.638 c 244.191
 228.638 237.273 235.353 237.273 243.638 c 237.273 251.919 244.191 258.638
 252.727 258.638 c 261.262 258.638 268.184 251.919 268.184 243.638 c h
268.184 243.638 m f*
0 g
q 1 0 0 -1 0 425.196838 cm
268.184 181.559 m 268.184 189.844 261.262 196.559 252.727 196.559 c 244.191
 196.559 237.273 189.844 237.273 181.559 c 237.273 173.277 244.191 166.559
 252.727 166.559 c 261.262 166.559 268.184 173.277 268.184 181.559 c h
268.184 181.559 m S Q
0 0 0.501961 rg
191.816 248.181 m 191.816 239.896 184.898 233.181 176.363 233.181 c 167.828
 233.181 160.91 239.896 160.91 248.181 c 160.91 256.466 167.828 263.181 
176.363 263.181 c 184.898 263.181 191.816 256.466 191.816 248.181 c h
191.816 248.181 m f*
0 g
q 1 0 0 -1 0 425.196838 cm
191.816 177.016 m 191.816 185.301 184.898 192.016 176.363 192.016 c 167.828
 192.016 160.91 185.301 160.91 177.016 c 160.91 168.73 167.828 162.016 176.363
 162.016 c 184.898 162.016 191.816 168.73 191.816 177.016 c h
191.816 177.016 m S Q
0 0 0.501961 rg
337.273 100.002 m 337.273 91.716 330.352 85.002 321.816 85.002 c 313.281
 85.002 306.363 91.716 306.363 100.002 c 306.363 108.283 313.281 115.002
 321.816 115.002 c 330.352 115.002 337.273 108.283 337.273 100.002 c h
337.273 100.002 m f*
0 g
q 1 0 0 -1 0 425.196838 cm
337.273 325.195 m 337.273 333.48 330.352 340.195 321.816 340.195 c 313.281
 340.195 306.363 333.48 306.363 325.195 c 306.363 316.914 313.281 310.195
 321.816 310.195 c 330.352 310.195 337.273 316.914 337.273 325.195 c h
337.273 325.195 m S Q
0 0 0.501961 rg
224.547 350.908 m 224.547 342.627 217.625 335.908 209.09 335.908 c 200.555
 335.908 193.637 342.627 193.637 350.908 c 193.637 359.193 200.555 365.908
 209.09 365.908 c 217.625 365.908 224.547 359.193 224.547 350.908 c h
224.547 350.908 m f*
0 g
q 1 0 0 -1 0 425.196838 cm
224.547 74.289 m 224.547 82.57 217.625 89.289 209.09 89.289 c 200.555 89.289
 193.637 82.57 193.637 74.289 c 193.637 66.004 200.555 59.289 209.09 59.289
 c 217.625 59.289 224.547 66.004 224.547 74.289 c h
224.547 74.289 m S Q
0 0 0.501961 rg
211.816 84.544 m 211.816 76.259 204.898 69.544 196.363 69.544 c 187.828
 69.544 180.91 76.259 180.91 84.544 c 180.91 92.83 187.828 99.544 196.363
 99.544 c 204.898 99.544 211.816 92.83 211.816 84.544 c h
211.816 84.544 m f*
0 g
q 1 0 0 -1 0 425.196838 cm
211.816 340.652 m 211.816 348.938 204.898 355.652 196.363 355.652 c 187.828
 355.652 180.91 348.938 180.91 340.652 c 180.91 332.367 187.828 325.652 
196.363 325.652 c 204.898 325.652 211.816 332.367 211.816 340.652 c h
211.816 340.652 m S Q
Q Q
showpage
%%Trailer
end restore
%%EOF
